Chapter 1 Geographic Information | CASA0005 Geographic Information Systems and Science
…
When you load tidyverse you might get a list of conflicts, this basically means that several packages have functions named the same thing. For example there is a function named filter() in the packages dplyr and stats. If you wanted to use the dplyr version you would use dplyr::filter() or for the stats version it would be stats::filter()â€¦

Note Your .csv might have a extra header present (a row before Row Labels). You can either: (a) stop and go and delete this in the .csv now and reload it or (b) change the code toâ€¦ mycsv <- read_csv("Prac1_data/fly_tipping_borough_edit.csv",      skip = 1)

To view the data just input:

mycsv 

## # A tibble: 34 x 9
##    `Row Labels` `2011_12` `2012_13` `2013_14` `2014_15` `2015_16` `2016_17`
##    <chr>            <dbl>     <dbl>     <dbl>     <dbl>     <dbl>     <dbl>
##  1 E09000001          563      1492       433       347       587      1944
##  2 E09000002         2687      2122      1399      3100      2672      1130
##  3 E09000003         2356      1828       890       219       615       130
##  4 E09000004          505       627       732       399       262       439
##  5 E09000005         6713      2232      3189      3926      3980      4366
##  6 E09000006          306       479       653       462       326       228
##  7 E09000007         5541      5962      8281      4837      4719      4656
##  8 E09000008           31       108       460       712      1707       637
##  9 E09000009         6727      5679      6543      5521      6067     12688
## 10 E09000010         7262      3595      3269      4937      5292     10894
## # ... with 24 more rows, and 2 more variables: 2017_18 <dbl>, Grand_Total <dbl>
…
