Chapter 2 Introduction to R | CASA0005 Geographic Information Systems and Science
…
# or, if you have your old skool data
class(LondonDataOSK)

We can also use the class() function (from base R) within another two functions summarise_all() (from dplyr) and pivot_longer() (from tidyr) to check that our data has been read in correctly and that, for example, numeric data havenâ€™t been read in as text or other variables. Run the following line of code:

Datatypelist <- LondonData %>% 
  summarise_all(class) %>%
  pivot_longer(everything(), 
               names_to="All_variables", 
               values_to="Variable_class")

Datatypelist

## # A tibble: 67 x 2
##    All_variables                      Variable_class
##    <chr>                              <chr>         
##  1 Ward name                          character     
##  2 Old code                           character     
##  3 New code                           character     
##  4 Population - 2015                  numeric       
##  5 Children aged 0-15 - 2015          numeric       
##  6 Working-age (16-64) - 2015         numeric       
##  7 Older people aged 65+ - 2015       numeric       
##  8 % All Children aged 0-15 - 2015    numeric       
##  9 % All Working-age (16-64) - 2015   numeric       
## 10 % All Older people aged 65+ - 2015 numeric       
## # ... with 57 more rows
…
Life_expectancy2 <- Life_expectancy %>%
  mutate(UKcompare = case_when(averagelifeexpectancy>81.16 ~ "above UK average",
                               TRUE ~ "below UK average"))
Life_expectancy2

## # A tibble: 33 x 5
##    new_code  borough                averagelifeexpec~ normalisedlifee~ UKcompare
##    <chr>     <chr>                              <dbl>            <dbl> <chr>    
##  1 E09000001 City of London                      86.4             1.05 above UK~
##  2 E09000020 Kensington and Chelsea              84.4             1.03 above UK~
##  3 E09000015 Harrow                              84.2             1.02 above UK~
##  4 E09000027 Richmond upon Thames                83.9             1.02 above UK~
##  5 E09000033 Westminster                         83.8             1.02 above UK~
##  6 E09000007 Camden                              83.6             1.02 above UK~
##  7 E09000003 Barnet                              83.4             1.02 above UK~
##  8 E09000006 Bromley                             83.1             1.01 above UK~
##  9 E09000021 Kingston upon Thames                82.9             1.01 above UK~
## 10 E09000005 Brent                               82.4             1.00 above UK~
## # ... with 23 more rows
…
